Project Report
…
Exploratory Analysis

COVID-19: 2019 vs 2020

To produce our summary tables and visualizations, we calculated average hours/minutes spent on activities using weights. The weights were created by ATUS to account for the fact that respondents were more likely to participate on weekends vs weekdays, and for the fact that some demographics were more represented than others (for instance, women were more likely to respond than men). To calculate average daily hours/minutes spent on an activity, we multiplied total time spent on the activity by the weight, and then summed all these products together and divided this by the sum of the weights. See the code for this calculation below.

 summary_household_category %>% 
  drop_na() %>%
  group_by(year, category) %>% 
  summarize(sum_product = sum(category_sum_hour_weight), 
            sum_weight = sum(weight)) %>% 
  mutate(average_hours = round(sum_product/sum_weight, 1)) 

## # A tibble: 32 x 5
## # Groups:   year [2]
##     year category                sum_product   sum_weight average_hours
##    <dbl> <chr>                         <dbl>        <dbl>         <dbl>
##  1  2019 caring_duties          42841745794. 77763912014.           0.6
##  2  2019 eating_drinking        82704263492. 77763912014.           1.1
##  3  2019 education              33584551555. 77763912014.           0.4
##  4  2019 exercise               24350549685. 77763912014.           0.3
##  5  2019 gov_civic_obligations    158433084. 77763912014.           0  
##  6  2019 household             139323868473. 77763912014.           1.8
##  7  2019 leisure               367139602561. 77763912014.           4.7
##  8  2019 personal_care          59177648542. 77763912014.           0.8
##  9  2019 professional_services   8498122728. 77763912014.           0.1
## 10  2019 religious_spiritual    10987537121. 77763912014.           0.1
## # ... with 22 more rows
…
